Prolific V323 categorization analysis Day01-implicity category match
…
Task structure

temptrialNumbersCat=totalData%>% group_by(subID,SameDiffCat,run)%>%summarize(num_same_Cat = length(SameDiffCat))
temptrialNumbersCat

## # A tibble: 112 x 4
## # Groups:   subID, SameDiffCat [?]
##    subID   SameDiffCat   run num_same_Cat
##    <fct>   <chr>       <int>        <int>
##  1 1165ff9 D               1          136
##  2 1165ff9 D               2          142
##  3 1165ff9 D               3          155
##  4 1165ff9 D               4          124
##  5 1165ff9 S               1          152
##  6 1165ff9 S               2          146
##  7 1165ff9 S               3          133
##  8 1165ff9 S               4          128
##  9 133fe68 D               1          155
## 10 133fe68 D               2          137
## # ... with 102 more rows
…
