Prolific V323 categorization analysis Day01-implicity object/category match
…
Task structure

temptrialNumbers=totalData %>%filter(run==1 |run==2) %>%group_by(subID,SameDiffImg)%>%summarize(num_same_Img = length(SameDiffImg))
temptrialNumbers

## # A tibble: 24 x 3
## # Groups:   subID [?]
##    subID   SameDiffImg num_same_Img
##    <fct>   <chr>              <int>
##  1 0ba0b64 D                    359
##  2 0ba0b64 S                    173
##  3 10573a7 D                    359
##  4 10573a7 S                    185
##  5 173d9d9 D                    359
##  6 173d9d9 S                    194
##  7 17e70a3 D                    360
##  8 17e70a3 S                    169
##  9 18d3da3 D                    314
## 10 18d3da3 S                    179
## # ... with 14 more rows

temptrialNumbersCat=totalData %>%filter(run==3 |run==4) %>% group_by(subID,SameDiffCat)%>%summarize(num_same_Cat = length(SameDiffCat))
temptrialNumbersCat

## # A tibble: 24 x 3
## # Groups:   subID [?]
##    subID   SameDiffCat num_same_Cat
##    <fct>   <chr>              <int>
##  1 0ba0b64 D                    287
##  2 0ba0b64 S                    289
##  3 10573a7 D                    276
##  4 10573a7 S                    300
##  5 173d9d9 D                    323
##  6 173d9d9 S                    253
##  7 17e70a3 D                    290
##  8 17e70a3 S                    286
##  9 18d3da3 D                    177
## 10 18d3da3 S                    175
## # ... with 14 more rows
…
